Project title
…
ufo_sightings |>
  filter(country == "de") |>
  drop_na(country) 

# A tibble: 105 × 11
   date_…¹ city_…² state country ufo_s…³ encou…⁴ descr…⁵ descr…⁶ date_…⁷ latit…⁸
   <chr>   <chr>   <chr> <chr>   <chr>     <dbl> <chr>   <chr>   <chr>     <dbl>
 1 10/13/… berlin… <NA>  de      fireba…     120 1-2 mi… 7 shoo… 10/30/…    52.5
 2 10/20/… berlin… <NA>  de      unknown    1500 25 min… Ovni a… 10/30/…    52.5
 3 10/8/2… obernh… <NA>  de      triang…       2 seconds UFO ap… 11/19/…    49.4
 4 1/10/2… otters… <NA>  de      triang…     240 4 minu… Triang… 1/31/2…    53.1
 5 11/15/… bremen… <NA>  de      unknown      30 30 sec  One ob… 8/5/20…    50.7
 6 11/15/… sembac… <NA>  de      egg         120 2 minu… An und… 5/15/2…    49.5
 7 11/18/… magdeb… <NA>  de      other         4 4 sec   Ich sa… 11/20/…    52.2
 8 1/1/20… neurup… <NA>  de      fireba…     900 15min   A red … 1/10/2…    52.9
 9 1/1/20… lamper… <NA>  de      fireba…    1560 26 min… Severa… 1/10/2…    49.6
10 1/1/20… ramste… <NA>  de      light      7200 2 hrs   Orange… 1/10/2…    49.4
# … with 95 more rows, 1 more variable: longitude <dbl>, and abbreviated
#   variable names ¹​date_time, ²​city_area, ³​ufo_shape, ⁴​encounter_length,
#   ⁵​described_encounter_length, ⁶​description, ⁷​date_documented, ⁸​latitude
…
